<?xml version="1.0" encoding="UTF-8" standalone="no"?>
<svg
   xmlns:dc="http://purl.org/dc/elements/1.1/"
   xmlns:cc="http://creativecommons.org/ns#"
   xmlns:rdf="http://www.w3.org/1999/02/22-rdf-syntax-ns#"
   xmlns:svg="http://www.w3.org/2000/svg"
   xmlns="http://www.w3.org/2000/svg"
   id="svg2379"
   version="1.1"
   viewBox="0 0 541.86665 270.93334"
   height="1024"
   width="2048">
  <defs
     id="defs2373" />
  <metadata
     id="metadata2376">
    <rdf:RDF>
      <cc:Work
         rdf:about="">
        <dc:format>image/svg+xml</dc:format>
        <dc:type
           rdf:resource="http://purl.org/dc/dcmitype/StillImage" />
        <dc:title></dc:title>
      </cc:Work>
    </rdf:RDF>
  </metadata>
  <g
     transform="translate(0,-26.06665)"
     id="layer1">
    <circle
       r="64.169121"
       cy="146.58641"
       cx="451.39166"
       id="path2195"
       style="fill:#f7e72b;fill-opacity:1;stroke:#000000;stroke-width:0.83666575;stroke-miterlimit:2;stroke-dasharray:none;stroke-opacity:1" />
    <circle
       r="58.981926"
       cy="146.58643"
       cx="451.39166"
       id="path2195-6"
       style="fill:#8f8405;fill-opacity:1;stroke:#000000;stroke-width:0.76903296;stroke-miterlimit:2;stroke-dasharray:none;stroke-opacity:1" />
    <g
       id="layer1-5"
       transform="matrix(0.177134,0,0,0.177134,426.81605,97.030228)">
      <path
         style="fill:#f7e72b;fill-opacity:1;stroke:#000000;stroke-width:1.76800001;stroke-linecap:butt;stroke-linejoin:miter;stroke-miterlimit:2;stroke-dasharray:none;stroke-opacity:1"
         d="M 6.3453873,49.141011 134.40605,93.683851 262.46669,49.141011 134.40605,32.437446 Z"
         id="path866" />
      <path
         style="fill:none;stroke:#000000;stroke-width:1.76800001;stroke-linecap:butt;stroke-linejoin:miter;stroke-miterlimit:2;stroke-dasharray:none;stroke-opacity:1"
         d="M 6.3453873,49.141011 V 232.88018 L 134.40605,294.12659 262.46669,232.88018 V 49.141011 l -128.06064,44.54284 z"
         id="path868" />
      <path
         style="fill:#f7e72b;fill-opacity:1;stroke:#000000;stroke-width:1.76800001;stroke-linecap:butt;stroke-linejoin:miter;stroke-miterlimit:2;stroke-dasharray:none;stroke-opacity:1"
         d="M 134.40605,93.683851 V 294.12659 L 262.46669,232.88018 V 49.141011 Z"
         id="path870" />
      <path
         style="fill:#f7e72b;fill-opacity:1;stroke:#000000;stroke-width:1.76800001;stroke-linecap:butt;stroke-linejoin:miter;stroke-miterlimit:2;stroke-dasharray:none;stroke-opacity:1"
         d="M 134.40605,93.683851 V 294.12659 L 6.3453873,232.88018 V 49.141011 Z"
         id="path872" />
      <path
         style="fill:#d5c508;fill-opacity:1;stroke:#000000;stroke-width:1.76800001;stroke-linecap:butt;stroke-linejoin:miter;stroke-miterlimit:2;stroke-dasharray:none;stroke-opacity:1"
         d="M 17.481107,65.844571 117.7025,104.81954 V 271.85515 L 17.481107,227.31233 Z"
         id="path874" />
      <path
         style="fill:#d5c508;fill-opacity:1;stroke:#000000;stroke-width:1.76800001;stroke-linecap:butt;stroke-linejoin:miter;stroke-miterlimit:2;stroke-dasharray:none;stroke-opacity:1"
         d="M 151.10962,104.81956 251.33099,65.844571 V 227.31233 l -100.22137,44.54282 z"
         id="path876" />
      <path
         style="fill:#d5c508;fill-opacity:1;stroke:#000000;stroke-width:1.76800001;stroke-linecap:butt;stroke-linejoin:miter;stroke-miterlimit:2;stroke-dasharray:none;stroke-opacity:1"
         d="M 134.40605,82.548132 223.49171,54.708858 134.40605,43.573164 45.320386,54.708858 Z"
         id="path878" />
    </g>
    <path
       id="path2337"
       d="m 393.48284,158.16806 c 0,0 15.02496,3.75623 31.30201,-8.76457 0,0 16.27704,-1.25208 22.53744,12.5208 0,0 3.75625,1.25208 21.28538,-10.01663 0,0 10.01663,1.25207 15.02496,7.51247 0,0 12.5208,3.75624 26.29369,-7.51247 0,0 -2.50417,50.08321 -57.59571,53.83945 0,0 -47.57905,1.25208 -58.84777,-47.57905 z"
       style="fill:#05858f;fill-opacity:1;stroke:#000000;stroke-width:0.69327796;stroke-linecap:butt;stroke-linejoin:miter;stroke-miterlimit:0.80000001;stroke-dasharray:none;stroke-opacity:1" />
    <path
       id="path2339"
       d="m 401.64107,163.32572 c 0,0 13.53327,1.13831 23.39865,-8.85355 0,0 11.63609,1.51776 15.68342,9.99187"
       style="fill:none;stroke:#ffffff;stroke-width:1.1268723;stroke-linecap:round;stroke-linejoin:round;stroke-miterlimit:4;stroke-dasharray:none;stroke-opacity:1" />
    <path
       id="path2341"
       d="m 448.94429,165.60235 c 0,0 14.67159,-2.90902 19.85724,-8.85355 0,0 8.98002,2.90902 11.88905,7.58876 0,0 12.7744,4.04733 22.89274,-1.89719"
       style="fill:none;stroke:#fcfcfc;stroke-width:1.1268723;stroke-linecap:round;stroke-linejoin:round;stroke-miterlimit:4;stroke-dasharray:none;stroke-opacity:1" />
    <path
       id="path2339-3"
       d="m 406.58024,171.32676 c 0,0 11.25102,0.94635 19.45269,-7.36048 0,0 9.67377,1.26181 13.03856,8.30683"
       style="fill:none;stroke:#ffffff;stroke-width:1.1268723;stroke-linecap:round;stroke-linejoin:round;stroke-miterlimit:4;stroke-dasharray:none;stroke-opacity:1" />
    <path
       id="path2341-5"
       d="m 451.05508,172.36937 c 0,0 12.92703,-2.56312 17.49607,-7.80079 0,0 7.91224,2.56311 10.47536,6.6864 0,0 11.25544,3.56607 20.17064,-1.67161"
       style="fill:none;stroke:#fcfcfc;stroke-width:1.1268723;stroke-linecap:round;stroke-linejoin:round;stroke-miterlimit:4;stroke-dasharray:none;stroke-opacity:1" />
    <g
       transform="matrix(0.46002378,0,0,0.46002378,25.824952,48.283634)"
       id="g3085">
      <path
         style="fill:#343434"
         d="m 127.961,0 -2.795,9.5 v 275.668 l 2.795,2.79 127.962,-75.638 z"
         id="path3059" />
      <path
         style="fill:#8c8c8c"
         d="M 127.962,0 0,212.32 127.962,287.959 V 154.158 Z"
         id="path3061" />
      <path
         style="fill:#3c3c3b"
         d="m 127.961,312.187 -1.575,1.92 v 98.199 l 1.575,4.6 L 256,236.587 Z"
         id="path3063" />
      <path
         style="fill:#8c8c8c"
         d="M 127.962,416.905 V 312.185 L 0,236.585 Z"
         id="path3065" />
      <path
         style="fill:#141414"
         d="m 127.961,287.958 127.96,-75.637 -127.96,-58.162 z"
         id="path3067" />
      <path
         style="fill:#393939"
         d="m 0,212.32 127.96,75.638 v -133.8 z"
         id="path3069" />
    </g>
    <text
       id="text3144"
       y="272.94571"
       x="59.333836"
       style="font-style:normal;font-weight:normal;font-size:10.58333302px;line-height:1.25;font-family:sans-serif;letter-spacing:0px;word-spacing:0px;fill:#d5d5d5;fill-opacity:1;stroke:none;stroke-width:0.26458332;"
       xml:space="preserve"><tspan
         style="font-size:25.39999962px;stroke-width:0.26458332;fill:#d5d5d5;fill-opacity:1;"
         y="272.94571"
         x="59.333836"
         id="tspan3142">ETH</tspan></text>
    <text
       id="text3144-6"
       y="272.15067"
       x="424.30865"
       style="font-style:normal;font-weight:normal;font-size:10.58333302px;line-height:1.25;font-family:sans-serif;letter-spacing:0px;word-spacing:0px;fill:#d5d5d5;fill-opacity:1;stroke:none;stroke-width:0.26458332;"
       xml:space="preserve"><tspan
         style="font-size:25.39999962px;stroke-width:0.26458332;fill:#d5d5d5;fill-opacity:1;"
         y="272.15067"
         x="424.30865"
         id="tspan3142-2">LIST</tspan></text>
    <flowRoot
       style="fill:black;fill-opacity:1;stroke:none;font-family:sans-serif;font-style:normal;font-weight:normal;font-size:40px;line-height:1.25;letter-spacing:0px;word-spacing:0px"
       id="flowRoot3164"
       xml:space="preserve"><flowRegion
         id="flowRegion3166"><rect
           y="-14.571429"
           x="-28.571428"
           height="64.285713"
           width="78.571426"
           id="rect3168" /></flowRegion><flowPara
         id="flowPara3170"></flowPara></flowRoot>    <g
       id="layer1-7"
       transform="matrix(0.31153497,0,0,0.31153497,225.46059,36.688932)">
      <path
         style="fill:#f7e72b;fill-opacity:1;stroke:#000000;stroke-width:1.76800001;stroke-linecap:butt;stroke-linejoin:miter;stroke-miterlimit:2;stroke-dasharray:none;stroke-opacity:1"
         d="M 6.3453873,49.141011 134.40605,93.683851 262.46669,49.141011 134.40605,32.437446 Z"
         id="path866-0" />
      <path
         style="fill:none;stroke:#000000;stroke-width:1.76800001;stroke-linecap:butt;stroke-linejoin:miter;stroke-miterlimit:2;stroke-dasharray:none;stroke-opacity:1"
         d="M 6.3453873,49.141011 V 232.88018 L 134.40605,294.12659 262.46669,232.88018 V 49.141011 l -128.06064,44.54284 z"
         id="path868-9" />
      <path
         style="fill:#f7e72b;fill-opacity:1;stroke:#000000;stroke-width:1.76800001;stroke-linecap:butt;stroke-linejoin:miter;stroke-miterlimit:2;stroke-dasharray:none;stroke-opacity:1"
         d="M 134.40605,93.683851 V 294.12659 L 262.46669,232.88018 V 49.141011 Z"
         id="path870-3" />
      <path
         style="fill:#f7e72b;fill-opacity:1;stroke:#000000;stroke-width:1.76800001;stroke-linecap:butt;stroke-linejoin:miter;stroke-miterlimit:2;stroke-dasharray:none;stroke-opacity:1"
         d="M 134.40605,93.683851 V 294.12659 L 6.3453873,232.88018 V 49.141011 Z"
         id="path872-6" />
      <path
         style="fill:#d5c508;fill-opacity:1;stroke:#000000;stroke-width:1.76800001;stroke-linecap:butt;stroke-linejoin:miter;stroke-miterlimit:2;stroke-dasharray:none;stroke-opacity:1"
         d="M 17.481107,65.844571 117.7025,104.81954 V 271.85515 L 17.481107,227.31233 Z"
         id="path874-0" />
      <path
         style="fill:#d5c508;fill-opacity:1;stroke:#000000;stroke-width:1.76800001;stroke-linecap:butt;stroke-linejoin:miter;stroke-miterlimit:2;stroke-dasharray:none;stroke-opacity:1"
         d="M 151.10962,104.81956 251.33099,65.844571 V 227.31233 l -100.22137,44.54282 z"
         id="path876-6" />
      <path
         style="fill:#d5c508;fill-opacity:1;stroke:#000000;stroke-width:1.76800001;stroke-linecap:butt;stroke-linejoin:miter;stroke-miterlimit:2;stroke-dasharray:none;stroke-opacity:1"
         d="M 134.40605,82.548132 223.49171,54.708858 134.40605,43.573164 45.320386,54.708858 Z"
         id="path878-2" />
    </g>
    <text
       id="text3999"
       y="203.99019"
       x="217.82466"
       style="font-style:normal;font-weight:normal;font-size:10.58333302px;line-height:1.25;font-family:sans-serif;letter-spacing:0px;word-spacing:0px;fill:#000000;fill-opacity:1;stroke:none;stroke-width:0.26458332"
       xml:space="preserve"><tspan
         style="stroke-width:0.26458332"
         y="213.35396"
         x="217.82466"
         id="tspan3997"></tspan></text>
    <text
       id="text3144-61"
       y="179.48978"
       x="244.12015"
       style="font-style:normal;font-weight:normal;font-size:10.58333302px;line-height:1.25;font-family:sans-serif;letter-spacing:0px;word-spacing:0px;fill:#d5d5d5;fill-opacity:1;stroke:none;stroke-width:0.26458332;"
       xml:space="preserve"><tspan
         style="font-size:25.39999962px;stroke-width:0.26458332;fill:#d5d5d5;fill-opacity:1;"
         y="179.48978"
         x="244.12015"
         id="tspan3142-8">BAY</tspan></text>
    <path
       id="path2983-7"
       d="m 131.84458,107.52383 72.38517,-26.17424 -2.33268,-6.451056 19.75401,5.622454 -11.58963,16.956259 -2.33267,-6.451048 -72.38517,26.174271 z"
       style="fill:#8a6558;fill-opacity:1;stroke:#000000;stroke-width:0.08864197px;stroke-linecap:butt;stroke-linejoin:miter;stroke-opacity:1" />
    <path
       id="path2983-7-9"
       d="m 315.89544,77.21869 67.02118,22.203384 1.97878,-5.97301 11.04764,15.259936 -17.97343,5.64563 1.97881,-5.97303 -67.02119,-22.203383 z"
       style="fill:#8a6558;fill-opacity:1;stroke:#000000;stroke-width:0.08130764px;stroke-linecap:butt;stroke-linejoin:miter;stroke-opacity:1" />
  </g>
</svg>
